
//=========================== BT CODE MAU ==============================

Kỹ thuật tìm max
Kỹ thuật duyệt
Kỹ thuật tìm kiếm
Kỹ thuật tính tổng/tích
Kỹ thuật tách chữ số



//------------- code duyệt + tìm kiếm -------------------
for (int i = 1;i <= 10;i++)//duyệt
	{
		if (i % 2 == 0)//tìm kiếm  ?? (tìm kiếm cái gì)
		{
			cout << i << endl;
		}
	}

//=============================
Bài 1. Nhập vào 1 số nguyên n(n > 0). Tính tổng 2 + 4 + 6 +...+ (2*n)


n  = 5
				2 + 4 + 6 +8 +10
				2*1 + 2*2 + 2*3 +2*4 + 2*5

		2*i

i	1 -> 5	6 dừng
1 đơn vị

//---------------
	int n;cin >> n;
	cout << "----------" << endl;
	int gio = 0;
	for (int i = 1;i <= n;i++)
	{
		gio = gio + 2 * i;
	}
	cout << gio << endl;
	system("pause");
//=================================================
Bài 2. Nhập vào 1 số nguyên dương n , điều kiện 0 < n < 20. Tính giai thừa của số nguyên dương n.


	n! VD:	n = 5;	5!= 1*2*3*4*5

		

		i	1 - 5	6 dừng	1 đơn vị

//---------------------
	int n;cin >> n;
	cout << "----------" << endl;
	int gt = 1;
	for (int i = 1;i <= n;i++)//1*2*3*4*5
	{
		gt = gt*i;
	}
	cout << gt << endl;
	system("pause");
//=============================================
Bài 3. Nhập vào số nguyên dương n(n > 0). Viết chương trình tách các chữ số của số nguyên dương n ?
Bài 4:

int n;
	do
	{
		cout << "Nhap so nguyen duong n(n>0): ";cin >> n;
	} while (n <=0);
	cout << "----------" << endl;
	int gio = 0;
	while (n!=0)//dk lap n!=0
	{
		//tách
		int du = n % 10;
		//------ đề yêu cầu làm gì ------
		//cout << du << endl;
		if (du % 2 != 0)//tìm kiếm
		{
			gio = gio + du;
		}
		//--------
		//vứt
		n = n / 10;
	}
	cout << "KQ: " << gio << endl;

//==============================================================

Bài 5. ==== ĐÔI VỚ BÉ BÉ XINH XINH ==== Tư Duy ======
- Nhà bạn A có n đôi vớ, mỗi ngày bạn A mang 1 đôi, mang xong thì vứt bỏ
- Cứ m ngày thì mẹ bạn A mua thêm cho A một đôi vớ mới.
- Hỏi bạn A mang vớ bao nhiêu ngày thì hết vớ để mang.
vd1:
INPUT: m = 2, n = 2
OUTPUT: 3
vd2: INPUT: m = 3, n = 9
OUTPUT: 13

		n 		sl vớ	
		1 ngày vứt 1 đôi:	n = n - 1
		m 		đủ m ngày thì sẽ mua vớ mới: n=n+1

vớ	ngày	đếm
n = 9	1	1
8	2	2
7	3 	3	đủ
8		0

7	4	1
6	5	2
5	6	3	đủ
6		0

5	7	1	
4	8	2
3	9	3	đủ
4		0	

3	10	1
2	11	2
1	12	3	đủ
2		0

1	13	1
0	dừng


			1 ngày:		giảm vớ, tăng ngày, tăng đếm

đếm để xem đủ 3 ngày thì: vớ + 1

//------------------------- c1 -------------
int n, m;
	cin >> n >> m;
	cout << "----------" << endl;
	if (n < 0 || m < 0)
	{
		cout << "Sai" << endl;
	}
	else if (m == 1)
	{
		cout << "Vo tan" << endl;
	}
	else
	{
		int ngay = 0;
		int dem = 0;
		while (n != 0)
		{
			//--- 1 lần lặp tương ứng 1 ngày -----
			n--;//giảm vớ
			ngay++;//tăng ngày
			dem++;//tăng đếm
			//------- cuối ngày ------
			if (dem == m)//đủ ngày
			{
				n++;//mẹ mua thêm vớ
				dem = 0;//reset dem = 0
			}
		}
		cout << ngay << endl;
	}
	system("pause");

//--------------------------- c2 -----------------
int n, m;
	cin >> n >> m;
	cout << "----------" << endl;
	if (n < 0 || m < 0)
	{
		cout << "Sai" << endl;
	}
	else if (m == 1)
	{
		cout << "Vo tan" << endl;
	}
	else
	{
		int ngay = 0;
		while (n != 0)
		{
			//--- 1 lần lặp tương ứng 1 ngày -----
			n--;//giảm vớ
			ngay++;//tăng ngày
			//------- cuối ngày ------
			if (ngay%m == 0)//3,6,9,12
			{
				n++;
			}
		}
		cout << ngay << endl;
	}
	system("pause");

//------------------------------------ c3 --------------------------

n = 9, m = 3


		n = 10000		m = 50


int n, m;
	cin >> n >> m;
	cout << "----------" << endl;
	if (n < 0 || m < 0)
	{
		cout << "Sai" << endl;
	}
	else if (m == 1)
	{
		cout << "Vo tan" << endl;
	}
	else
	{
		//int ngay = 0;
		int dem = 0;
		while (n >= 3)//n<3: 012
		{
			//---- m ngày ----
			n = n - 3;//giảm 3 đôi
			//ngay = ngay + 3;
			dem++;
			n = n + 1;//mua vớ vớ
		}
		//thừa: 0/1/2
		//ngay = ngay + n;
		cout << dem*m + n<< endl;
	}
	system("pause");

//==================================================================


===========================TỰ LÀM===============================
============================ BT ứng dụng ===================
Bài 1. Nhập vào 1 số nguyên n(n > 0). Tính tổng 2 + 4 + 6 +...+ (2*n)

void main()
{
	int n, i, s, tong = 0 ;
	cout << "Moi ban nhap vao so nguyen n>0:   "; cin >> n;
	for (i = 0; i <= n; i++)
	{
		s = 2 * i;
		tong = tong + s;
	}
	cout << "Tong la:  " << tong << endl;
}

=============================================================
Bài 2. Nhập vào 1 số nguyên dương n , điều kiện 0 < n < 20. Tính giai thừa của số nguyên dương n.

void main()
{
	int n, i, gt = 1 ;
	cout << "Moi ban nhap vao so nguyen 0< n <20 "; cin >> n;
	for (i = 1; i <= n; i++)
	{
		
		gt = gt * i;
	}
	cout << "giai thua " << gt << endl;
}

======================================================================
Bài 3. Nhập vào số nguyên dương n(n > 0). Viết chương trình tách các chữ số của số nguyên dương n ?
VD: n = 1675
==> gồm các chữ số
5  
7  
6  
1

void main()
{
	int n, a  ;
	cout << "Moi ban nhap vao so nguyen n>0:   "; cin >> n;
	while (n > 0)
	{
		a = n % 10;
		cout << a << endl;
		n = n / 10;
	}
	
}

===========================================================================
Bài 4. Nhập vào 1 số nguyên n(n > 0). Tính tổng các " chữ số lẻ " của số nguyên dương n.

void main()
{
	int n, s = 0 , i ;
	cout << "Moi ban nhap vao so nguyen n>0:   "; cin >> n;
	for ( i =0; i <= n; i++)
	{
		if (i % 2 != 0)
		{
			s = s + i;
		}

	}
	cout << "Tong cac so le la: " << s << endl;
}

=======================================================================================
Bài 5. ==== ĐÔI VỚ BÉ BÉ XINH XINH ==== Tư Duy ======
- Nhà bạn A có n đôi vớ, mỗi ngày bạn A mang 1 đôi, mang xong thì vứt bỏ
- Cứ m ngày thì mẹ bạn A mua thêm cho A một đôi vớ mới.
- Hỏi bạn A mang vớ bao nhiêu ngày thì hết vớ để mang.
vd1:
INPUT: m = 2, n = 2
OUTPUT: 3
vd2: INPUT: m = 3, n = 9
OUTPUT: 13

void main()
{
	int n; // so doi vo ban dau co 
	int m; // la so ngay me cho them 1 doi vo 

	cout << "Nhap vao so vo ban dau ban Ngoc co: "; cin >> n;
	cout << "Nhap vao so ngay me cho Ngoc them 1 doi vo: "; cin >> m;

	int dem = 0; // dem xem trong n ngay do Trong da cho Ngoc bao nhieu doi vo
	int x = n; // so vo hien tai Ngoc dang co 
	while (x >= m)
	{
		x = x - m + 1;
		dem ++ ;
	}
	cout << "So ngay " << dem + n << endl;
}

//------------------- CLĐK nâng cao ---------
====================================================
1. Nhập 4 số nguyên a,b,c,d. => tìm max

void main()
{
	int a, b, c, d, max;
	cout << "Nhap vao 4 so nguyen a, b, c, d : "; cin >> a >> b >> c >> d;
	max = a ;
	if (b > max)
	{
		max = b;
	}
	if (c > max)
	{
		max = c;
	}
	if (d > max)
	{
		max = d;
	}
	cout << "Max la: " << max << endl;

}

===================================================
4. (tư duy) Hoán vị 2 biến bằng 2 cách
cách 1: dùng biến trung gian

void main()
{
	int a, b, tam;
	cout << "Nhap vao 4 so nguyen a, b: "; cin >> a >> b;
	tam = a;
	a = b;
	b = tam;
	cout << "Bien sau khi hoan vi la:\n " << a << "\n" << b << endl;
}

cách 2: không dùng biến trung gian

void main()
{
	int a ,b ;
	cout << "Nhap vao 2 so nguyen a, b: "; cin >> a >> b;
	a = a * b; 
	b = a / b;
	a = a / b;
	cout << "2 So sau khi hoan vi la: " << a<< " " <<b << endl;
}

=============BAI TAP TU DUY==============================================

1.Nhận n số nguyên dương từ bàn phím. Xuất ra màn hình kết quả nhỏ nhất(không sử dụng mảng).

#include <iostream>
using namespace std;
void main()
{
	int n, i, min, a ,b, c ;
	cout << "Nhap vao n so nguyen duong: "; cin >> n;
	cout << "Nhap gia tri thu 1: "; cin >> a;
	min = a;
	for (i = 2; i <= n; i++)
	{
		cout << "Nhap gia tri thu " << i << ": "; cin >> b;
		c = b; 
		if (c < min)
		{
			min = c;
		}
	}
	cout << "Gia tri Min la: " << min << endl;
}
=========================================================================
//============= kỹ thuật:=========================================
+ kỹ thuật duyệt
+ kỹ thuật tính tổng
+ kỹ thuật tính tích
+ kỹ thuật tách
+ kỹ thuật tách chữ số + kt chẵn lẻ + tổng